<?xml version="1.0" encoding="utf-8"?>
<!-- Generator: Adobe Illustrator 23.0.4, SVG Export Plug-In . SVG Version: 6.00 Build 0)  -->
<svg version="1.1" id="Laag_1" xmlns="http://www.w3.org/2000/svg" xmlns:xlink="http://www.w3.org/1999/xlink" x="0px" y="0px"
	 viewBox="0 0 36 15" style="enable-background:new 0 0 36 15;" xml:space="preserve">
<title>Line 3 Copy</title>
<desc>Created with Sketch.</desc>
<g>
	<g transform="translate(-674.000000, -1212.000000)">
		<path id="Line-3-Copy" d="M679,1220.5l8.2,4.6l-0.7,1.3l-11.8-6.6l11.8-6.6l0.7,1.3l-8.2,4.6l30.6,0l0,1.5L679,1220.5z"/>
	</g>
</g>
</svg>
